11-17-2016 11:41:16 T#54[0x00000c8c] ERROR - Monitor: Executor - ROI Outside detected in Extract - Main : Extract
11-17-2016 11:41:16 T#57[0x00000c74] ERROR - Monitor: Executor - ROI Outside detected in Extract - Main : Extract
11-17-2016 11:41:16 T#66[0x00000cd4] ERROR - Monitor: Executor - ROI Outside detected in Extract - Main : Extract
11-17-2016 11:41:16 T#63[0x00000cb0] ERROR - Monitor: Executor - ROI Outside detected in Extract - Main : Extract
11-17-2016 11:41:16 T#60[0x00000c6c] ERROR - Monitor: Executor - ROI Outside detected in Extract - Main : Extract
11-17-2016 11:41:16 T#54[0x00000c8c] ERROR - Monitor: Executor - ROI Outside detected in Extract - Main : Extract
11-17-2016 11:41:16 T#54[0x00000c8c] ERROR - Monitor: Reset - Save image with graphics failed - Reset_Report_Images : save image with graphics_1_A_A
11-17-2016 11:41:16 T#57[0x00000c74] ERROR - Monitor: Executor - ROI Outside detected in Extract - Main : Extract
11-17-2016 11:41:16 T#66[0x00000cd4] ERROR - Monitor: Executor - ROI Outside detected in Extract - Main : Extract
11-17-2016 11:41:16 T#69[0x00000ce4] ERROR - Monitor: Executor - ROI Outside detected in Extract - Main : Extract
11-17-2016 11:41:16 T#60[0x00000c6c] ERROR - Monitor: Executor - ROI Outside detected in Extract - Main : Extract
11-17-2016 11:41:16 T#54[0x00000c8c] ERROR - Monitor: Executor - ROI Outside detected in Extract - Main : Extract
11-17-2016 11:41:16 T#69[0x00000ce4] ERROR - Monitor: Executor - ROI Outside detected in Extract - Main : Extract
11-17-2016 11:41:16 T#60[0x00000c6c] ERROR - Monitor: Executor - ROI Outside detected in Extract - Main : Extract
11-17-2016 11:41:16 T#63[0x00000cb0] ERROR - Monitor: Executor - ROI Outside detected in Extract - Main : Extract
11-17-2016 11:41:17 T#69[0x00000ce4] ERROR - Monitor: Executor - ROI Outside detected in Extract - Main : Extract
11-17-2016 11:41:17 T#57[0x00000c74] ERROR - Monitor: Executor - ROI Outside detected in Extract - Main : Extract
11-17-2016 11:41:17 T#66[0x00000cd4] ERROR - Monitor: Executor - ROI Outside detected in Extract - Main : Extract
11-17-2016 11:41:17 T#63[0x00000cb0] ERROR - Monitor: Executor - ROI Outside detected in Extract - Main : Extract
11-17-2016 11:41:17 T#54[0x00000c8c] ERROR - Monitor: Executor - ROI Outside detected in Extract - Main : Extract
11-17-2016 11:41:17 T#54[0x00000c8c] ERROR - Monitor: Reset - Save image with graphics failed - Reset_Report_Images : save image with graphics_1_A_A
11-17-2016 11:41:17 T#57[0x00000c74] ERROR - Monitor: Executor - ROI Outside detected in Extract - Main : Extract
11-17-2016 11:41:17 T#66[0x00000cd4] ERROR - Monitor: Executor - ROI Outside detected in Extract - Main : Extract
11-17-2016 11:41:17 T#63[0x00000cb0] ERROR - Monitor: Executor - ROI Outside detected in Extract - Main : Extract
11-17-2016 11:41:17 T#60[0x00000c6c] ERROR - Monitor: Executor - ROI Outside detected in Extract - Main : Extract
11-17-2016 11:41:17 T#54[0x00000c8c] ERROR - Monitor: Executor - ROI Outside detected in Extract - Main : Extract
11-17-2016 11:41:17 T#57[0x00000c74] ERROR - Monitor: Executor - ROI Outside detected in Extract - Main : Extract
11-17-2016 11:41:17 T#66[0x00000cd4] ERROR - Monitor: Executor - ROI Outside detected in Extract - Main : Extract
11-17-2016 11:41:17 T#69[0x00000ce4] ERROR - Monitor: Executor - ROI Outside detected in Extract - Main : Extract
11-17-2016 11:41:17 T#60[0x00000c6c] ERROR - Monitor: Executor - ROI Outside detected in Extract - Main : Extract
11-17-2016 11:41:17 T#54[0x00000c8c] ERROR - Monitor: Executor - ROI Outside detected in Extract - Main : Extract
11-17-2016 11:41:18 T#69[0x00000ce4] ERROR - Monitor: Executor - ROI Outside detected in Extract - Main : Extract
11-17-2016 11:41:18 T#60[0x00000c6c] ERROR - Monitor: Executor - ROI Outside detected in Extract - Main : Extract
11-17-2016 11:41:18 T#51[0x00000af0] ERROR - Monitor: Reset - Save image with graphics failed - Reset_Report_Images : save image with graphics_1_A_A
11-17-2016 11:41:18 T#63[0x00000cb0] ERROR - Monitor: Executor - ROI Outside detected in Extract - Main : Extract
11-17-2016 11:41:18 T#69[0x00000ce4] ERROR - Monitor: Executor - ROI Outside detected in Extract - Main : Extract
11-17-2016 11:41:18 T#51[0x00000af0] ERROR - Monitor: Reset - Save image with graphics failed - Reset_Report_Images : save image with graphics_1_A_A
11-17-2016 11:41:18 T#54[0x00000c8c] ERROR - Monitor: Reset - Save image with graphics failed - Reset_Report_Images : save image with graphics_1_A_A
11-17-2016 11:41:18 T#57[0x00000c74] ERROR - Monitor: Executor - ROI Outside detected in Extract - Main : Extract
11-17-2016 11:41:18 T#66[0x00000cd4] ERROR - Monitor: Executor - ROI Outside detected in Extract - Main : Extract
11-17-2016 11:41:18 T#66[0x00000cd4] ERROR - Monitor: Reset - Save image with graphics failed - Reset_Report_Images : save image with graphics_1_A_A
11-17-2016 11:41:18 T#63[0x00000cb0] ERROR - Monitor: Executor - ROI Outside detected in Extract - Main : Extract
11-17-2016 11:41:18 T#54[0x00000c8c] ERROR - Monitor: Executor - ROI Outside detected in Extract - Main : Extract
11-17-2016 11:41:18 T#66[0x00000cd4] ERROR - Monitor: Executor - ROI Outside detected in Extract - Main : Extract
11-17-2016 11:41:18 T#57[0x00000c74] ERROR - Monitor: Executor - ROI Outside detected in Extract - Main : Extract
11-17-2016 11:41:18 T#57[0x00000c74] ERROR - Monitor: Reset - Save image with graphics failed - Reset_Report_Images : save image with graphics_1_A_A
11-17-2016 11:41:18 T#63[0x00000cb0] ERROR - Monitor: Executor - ROI Outside detected in Extract - Main : Extract
11-17-2016 11:41:18 T#60[0x00000c6c] ERROR - Monitor: Executor - ROI Outside detected in Extract - Main : Extract
11-17-2016 11:41:19 T#54[0x00000c8c] ERROR - Monitor: Executor - ROI Outside detected in Extract - Main : Extract
11-17-2016 11:41:19 T#57[0x00000c74] ERROR - Monitor: Executor - ROI Outside detected in Extract - Main : Extract
11-17-2016 11:41:19 T#66[0x00000cd4] ERROR - Monitor: Executor - ROI Outside detected in Extract - Main : Extract
11-17-2016 11:41:19 T#51[0x00000af0] ERROR - Monitor: Reset - Save image with graphics failed - Reset_Report_Images : save image with graphics_1_A_A
11-17-2016 11:41:19 T#69[0x00000ce4] ERROR - Monitor: Executor - ROI Outside detected in Extract - Main : Extract
11-17-2016 11:41:19 T#60[0x00000c6c] ERROR - Monitor: Executor - ROI Outside detected in Extract - Main : Extract
11-17-2016 11:41:19 T#54[0x00000c8c] ERROR - Monitor: Executor - ROI Outside detected in Extract - Main : Extract
11-17-2016 11:41:19 T#66[0x00000cd4] ERROR - Monitor: Reset - Save image with graphics failed - Reset_Report_Images : save image with graphics_1_A_A
11-17-2016 11:41:19 T#69[0x00000ce4] ERROR - Monitor: Executor - ROI Outside detected in Extract - Main : Extract
11-17-2016 11:41:19 T#69[0x00000ce4] ERROR - Monitor: Reset - Save image with graphics failed - Reset_Report_Images : save image with graphics_1_A_A
11-17-2016 11:41:19 T#60[0x00000c6c] ERROR - Monitor: Executor - ROI Outside detected in Extract - Main : Extract
11-17-2016 11:41:19 T#54[0x00000c8c] ERROR - Monitor: Reset - Save image with graphics failed - Reset_Report_Images : save image with graphics_1_A_A
11-17-2016 11:41:19 T#69[0x00000ce4] ERROR - Monitor: Executor - ROI Outside detected in Extract - Main : Extract
11-17-2016 11:41:19 T#63[0x00000cb0] ERROR - Monitor: Executor - ROI Outside detected in Extract - Main : Extract
11-17-2016 11:41:19 T#69[0x00000ce4] ERROR - Monitor: Reset - Save image with graphics failed - Reset_Report_Images : save image with graphics_1_A_A
11-17-2016 11:41:19 T#57[0x00000c74] ERROR - Monitor: Executor - ROI Outside detected in Extract - Main : Extract
11-17-2016 11:41:19 T#66[0x00000cd4] ERROR - Monitor: Executor - ROI Outside detected in Extract - Main : Extract
11-17-2016 11:41:19 T#63[0x00000cb0] ERROR - Monitor: Executor - ROI Outside detected in Extract - Main : Extract
11-17-2016 11:41:19 T#63[0x00000cb0] ERROR - Monitor: Reset - Save image with graphics failed - Reset_Report_Images : save image with graphics_1_A_A
11-17-2016 11:41:20 T#54[0x00000c8c] ERROR - Monitor: Executor - ROI Outside detected in Extract - Main : Extract
11-17-2016 11:41:20 T#57[0x00000c74] ERROR - Monitor: Executor - ROI Outside detected in Extract - Main : Extract
11-17-2016 11:41:20 T#66[0x00000cd4] ERROR - Monitor: Executor - ROI Outside detected in Extract - Main : Extract
11-17-2016 11:41:20 T#63[0x00000cb0] ERROR - Monitor: Executor - ROI Outside detected in Extract - Main : Extract
11-17-2016 11:41:20 T#63[0x00000cb0] ERROR - Monitor: Reset - Save image with graphics failed - Reset_Report_Images : save image with graphics_1_A_A
11-17-2016 11:41:20 T#60[0x00000c6c] ERROR - Monitor: Executor - ROI Outside detected in Extract - Main : Extract
11-17-2016 11:41:20 T#54[0x00000c8c] ERROR - Monitor: Executor - ROI Outside detected in Extract - Main : Extract
11-17-2016 11:41:20 T#57[0x00000c74] ERROR - Monitor: Executor - ROI Outside detected in Extract - Main : Extract
11-17-2016 11:41:20 T#66[0x00000cd4] ERROR - Monitor: Executor - ROI Outside detected in Extract - Main : Extract
11-17-2016 11:41:20 T#69[0x00000ce4] ERROR - Monitor: Executor - ROI Outside detected in Extract - Main : Extract
11-17-2016 11:41:20 T#69[0x00000ce4] ERROR - Monitor: Reset - Save image with graphics failed - Reset_Report_Images : save image with graphics_1_A_A
11-17-2016 11:41:20 T#60[0x00000c6c] ERROR - Monitor: Executor - ROI Outside detected in Extract - Main : Extract
11-17-2016 11:41:20 T#54[0x00000c8c] ERROR - Monitor: Executor - ROI Outside detected in Extract - Main : Extract
11-17-2016 11:41:20 T#54[0x00000c8c] ERROR - Monitor: Reset - Save image with graphics failed - Reset_Report_Images : save image with graphics_1_A_A
11-17-2016 11:41:20 T#69[0x00000ce4] ERROR - Monitor: Executor - ROI Outside detected in Extract - Main : Extract
11-17-2016 11:41:20 T#69[0x00000ce4] ERROR - Monitor: Reset - Save image with graphics failed - Reset_Report_Images : save image with graphics_1_A_A
11-17-2016 11:41:20 T#60[0x00000c6c] ERROR - Monitor: Executor - ROI Outside detected in Extract - Main : Extract
11-17-2016 11:41:20 T#69[0x00000ce4] ERROR - Monitor: Executor - ROI Outside detected in Extract - Main : Extract
11-17-2016 11:41:20 T#63[0x00000cb0] ERROR - Monitor: Executor - ROI Outside detected in Extract - Main : Extract
11-17-2016 11:41:20 T#63[0x00000cb0] ERROR - Monitor: Reset - Save image with graphics failed - Reset_Report_Images : save image with graphics_1_A_A
11-17-2016 11:41:21 T#57[0x00000c74] ERROR - Monitor: Executor - ROI Outside detected in Extract - Main : Extract
11-17-2016 11:41:21 T#66[0x00000cd4] ERROR - Monitor: Executor - ROI Outside detected in Extract - Main : Extract
11-17-2016 11:41:21 T#63[0x00000cb0] ERROR - Monitor: Executor - ROI Outside detected in Extract - Main : Extract
11-17-2016 11:41:21 T#54[0x00000c8c] ERROR - Monitor: Executor - ROI Outside detected in Extract - Main : Extract
11-17-2016 11:41:21 T#57[0x00000c74] ERROR - Monitor: Executor - ROI Outside detected in Extract - Main : Extract
11-17-2016 11:41:21 T#66[0x00000cd4] ERROR - Monitor: Executor - ROI Outside detected in Extract - Main : Extract
11-17-2016 11:41:21 T#63[0x00000cb0] ERROR - Monitor: Executor - ROI Outside detected in Extract - Main : Extract
11-17-2016 11:41:21 T#60[0x00000c6c] ERROR - Monitor: Executor - ROI Outside detected in Extract - Main : Extract
11-17-2016 11:41:21 T#54[0x00000c8c] ERROR - Monitor: Executor - ROI Outside detected in Extract - Main : Extract
11-17-2016 11:41:21 T#44[0x000009a0] ERROR - Monitor: Reset - Save image with graphics failed - Reset_Report_Images : save image with graphics_1_A_A
11-17-2016 11:41:21 T#57[0x00000c74] ERROR - Monitor: Executor - ROI Outside detected in Extract - Main : Extract
11-17-2016 11:41:21 T#66[0x00000cd4] ERROR - Monitor: Executor - ROI Outside detected in Extract - Main : Extract
11-17-2016 11:41:21 T#69[0x00000ce4] ERROR - Monitor: Executor - ROI Outside detected in Extract - Main : Extract
11-17-2016 11:41:21 T#60[0x00000c6c] ERROR - Monitor: Executor - ROI Outside detected in Extract - Main : Extract
11-17-2016 11:41:21 T#54[0x00000c8c] ERROR - Monitor: Executor - ROI Outside detected in Extract - Main : Extract
11-17-2016 11:41:22 T#69[0x00000ce4] ERROR - Monitor: Executor - ROI Outside detected in Extract - Main : Extract
11-17-2016 11:41:22 T#63[0x00000cb0] ERROR - Monitor: Reset - Save image with graphics failed - Reset_Report_Images : save image with graphics_1_A_A
11-17-2016 11:41:22 T#60[0x00000c6c] ERROR - Monitor: Executor - ROI Outside detected in Extract - Main : Extract
11-17-2016 11:41:22 T#63[0x00000cb0] ERROR - Monitor: Executor - ROI Outside detected in Extract - Main : Extract
11-17-2016 11:41:22 T#69[0x00000ce4] ERROR - Monitor: Executor - ROI Outside detected in Extract - Main : Extract
11-17-2016 11:41:22 T#57[0x00000c74] ERROR - Monitor: Executor - ROI Outside detected in Extract - Main : Extract
11-17-2016 11:41:22 T#44[0x000009a0] ERROR - Monitor: Reset - Save image with graphics failed - Reset_Report_Images : save image with graphics_1_A_A
11-17-2016 11:41:22 T#66[0x00000cd4] ERROR - Monitor: Executor - ROI Outside detected in Extract - Main : Extract
11-17-2016 11:41:22 T#63[0x00000cb0] ERROR - Monitor: Executor - ROI Outside detected in Extract - Main : Extract
11-17-2016 11:41:22 T#54[0x00000c8c] ERROR - Monitor: Executor - ROI Outside detected in Extract - Main : Extract
11-17-2016 11:41:22 T#57[0x00000c74] ERROR - Monitor: Executor - ROI Outside detected in Extract - Main : Extract
11-17-2016 11:41:22 T#66[0x00000cd4] ERROR - Monitor: Executor - ROI Outside detected in Extract - Main : Extract
11-17-2016 11:41:22 T#63[0x00000cb0] ERROR - Monitor: Executor - ROI Outside detected in Extract - Main : Extract
11-17-2016 11:41:22 T#60[0x00000c6c] ERROR - Monitor: Executor - ROI Outside detected in Extract - Main : Extract
11-17-2016 11:41:23 T#54[0x00000c8c] ERROR - Monitor: Executor - ROI Outside detected in Extract - Main : Extract
11-17-2016 11:41:23 T#57[0x00000c74] ERROR - Monitor: Executor - ROI Outside detected in Extract - Main : Extract
11-17-2016 11:41:23 T#66[0x00000cd4] ERROR - Monitor: Executor - ROI Outside detected in Extract - Main : Extract
11-17-2016 11:41:23 T#66[0x00000cd4] ERROR - Monitor: Reset - Save image with graphics failed - Reset_Report_Images : save image with graphics_1_A_A
11-17-2016 11:41:23 T#69[0x00000ce4] ERROR - Monitor: Executor - ROI Outside detected in Extract - Main : Extract
11-17-2016 11:41:23 T#69[0x00000ce4] ERROR - Monitor: Reset - Save image with graphics failed - Reset_Report_Images : save image with graphics_1_A_A
11-17-2016 11:41:23 T#60[0x00000c6c] ERROR - Monitor: Executor - ROI Outside detected in Extract - Main : Extract
11-17-2016 11:41:23 T#54[0x00000c8c] ERROR - Monitor: Executor - ROI Outside detected in Extract - Main : Extract
11-17-2016 11:41:23 T#69[0x00000ce4] ERROR - Monitor: Executor - ROI Outside detected in Extract - Main : Extract
11-17-2016 11:41:23 T#63[0x00000cb0] ERROR - Monitor: Reset - Save image with graphics failed - Reset_Report_Images : save image with graphics_1_A_A
11-17-2016 11:41:23 T#60[0x00000c6c] ERROR - Monitor: Executor - ROI Outside detected in Extract - Main : Extract
11-17-2016 11:41:23 T#57[0x00000c74] ERROR - Monitor: Reset - Save image with graphics failed - Reset_Report_Images : save image with graphics_1_A_A
11-17-2016 11:41:23 T#63[0x00000cb0] ERROR - Monitor: Executor - ROI Outside detected in Extract - Main : Extract
11-17-2016 11:41:23 T#69[0x00000ce4] ERROR - Monitor: Executor - ROI Outside detected in Extract - Main : Extract
11-17-2016 11:41:23 T#57[0x00000c74] ERROR - Monitor: Executor - ROI Outside detected in Extract - Main : Extract
11-17-2016 11:41:23 T#66[0x00000cd4] ERROR - Monitor: Executor - ROI Outside detected in Extract - Main : Extract
11-17-2016 11:41:23 T#63[0x00000cb0] ERROR - Monitor: Executor - ROI Outside detected in Extract - Main : Extract
11-17-2016 11:41:24 T#54[0x00000c8c] ERROR - Monitor: Executor - ROI Outside detected in Extract - Main : Extract
11-17-2016 11:41:24 T#57[0x00000c74] ERROR - Monitor: Executor - ROI Outside detected in Extract - Main : Extract
11-17-2016 11:41:24 T#66[0x00000cd4] ERROR - Monitor: Executor - ROI Outside detected in Extract - Main : Extract
11-17-2016 11:41:24 T#66[0x00000cd4] ERROR - Monitor: Reset - Save image with graphics failed - Reset_Report_Images : save image with graphics_1_A_A
11-17-2016 11:41:24 T#63[0x00000cb0] ERROR - Monitor: Executor - ROI Outside detected in Extract - Main : Extract
11-17-2016 11:41:24 T#60[0x00000c6c] ERROR - Monitor: Executor - ROI Outside detected in Extract - Main : Extract
11-17-2016 11:41:24 T#54[0x00000c8c] ERROR - Monitor: Executor - ROI Outside detected in Extract - Main : Extract
11-17-2016 11:41:24 T#57[0x00000c74] ERROR - Monitor: Executor - ROI Outside detected in Extract - Main : Extract
11-17-2016 11:41:24 T#66[0x00000cd4] ERROR - Monitor: Executor - ROI Outside detected in Extract - Main : Extract
11-17-2016 11:41:24 T#69[0x00000ce4] ERROR - Monitor: Executor - ROI Outside detected in Extract - Main : Extract
11-17-2016 11:41:24 T#60[0x00000c6c] ERROR - Monitor: Executor - ROI Outside detected in Extract - Main : Extract
11-17-2016 11:41:24 T#54[0x00000c8c] ERROR - Monitor: Executor - ROI Outside detected in Extract - Main : Extract
11-17-2016 11:41:24 T#57[0x00000c74] ERROR - Monitor: Reset - Save image with graphics failed - Reset_Report_Images : save image with graphics_1_A_A
11-17-2016 11:41:24 T#69[0x00000ce4] ERROR - Monitor: Executor - ROI Outside detected in Extract - Main : Extract
11-17-2016 11:41:24 T#60[0x00000c6c] ERROR - Monitor: Executor - ROI Outside detected in Extract - Main : Extract
11-17-2016 11:41:24 T#63[0x00000cb0] ERROR - Monitor: Executor - ROI Outside detected in Extract - Main : Extract
11-17-2016 11:41:24 T#69[0x00000ce4] ERROR - Monitor: Executor - ROI Outside detected in Extract - Main : Extract
11-17-2016 11:41:25 T#57[0x00000c74] ERROR - Monitor: Executor - ROI Outside detected in Extract - Main : Extract
11-17-2016 11:41:25 T#66[0x00000cd4] ERROR - Monitor: Executor - ROI Outside detected in Extract - Main : Extract
11-17-2016 11:41:25 T#66[0x00000cd4] ERROR - Monitor: Reset - Save image with graphics failed - Reset_Report_Images : save image with graphics_1_A_A
11-17-2016 11:41:25 T#63[0x00000cb0] ERROR - Monitor: Executor - ROI Outside detected in Extract - Main : Extract
11-17-2016 11:41:25 T#54[0x00000c8c] ERROR - Monitor: Executor - ROI Outside detected in Extract - Main : Extract
11-17-2016 11:41:25 T#57[0x00000c74] ERROR - Monitor: Executor - ROI Outside detected in Extract - Main : Extract
11-17-2016 11:41:25 T#66[0x00000cd4] ERROR - Monitor: Executor - ROI Outside detected in Extract - Main : Extract
11-17-2016 11:41:25 T#66[0x00000cd4] ERROR - Monitor: Reset - Save image with graphics failed - Reset_Report_Images : save image with graphics_1_A_A
11-17-2016 11:41:25 T#63[0x00000cb0] ERROR - Monitor: Executor - ROI Outside detected in Extract - Main : Extract
11-17-2016 11:41:25 T#60[0x00000c6c] ERROR - Monitor: Executor - ROI Outside detected in Extract - Main : Extract
11-17-2016 11:41:25 T#54[0x00000c8c] ERROR - Monitor: Executor - ROI Outside detected in Extract - Main : Extract
11-17-2016 11:41:25 T#66[0x00000cd4] ERROR - Monitor: Executor - ROI Outside detected in Extract - Main : Extract
11-17-2016 11:41:25 T#57[0x00000c74] ERROR - Monitor: Executor - ROI Outside detected in Extract - Main : Extract
11-17-2016 11:41:25 T#57[0x00000c74] ERROR - Monitor: Reset - Save image with graphics failed - Reset_Report_Images : save image with graphics_1_A_A
11-17-2016 11:41:25 T#69[0x00000ce4] ERROR - Monitor: Executor - ROI Outside detected in Extract - Main : Extract
11-17-2016 11:41:25 T#60[0x00000c6c] ERROR - Monitor: Executor - ROI Outside detected in Extract - Main : Extract
11-17-2016 11:41:25 T#54[0x00000c8c] ERROR - Monitor: Executor - ROI Outside detected in Extract - Main : Extract
11-17-2016 11:41:26 T#66[0x00000cd4] ERROR - Monitor: Reset - Save image with graphics failed - Reset_Report_Images : save image with graphics_1_A_A
11-17-2016 11:41:26 T#69[0x00000ce4] ERROR - Monitor: Executor - ROI Outside detected in Extract - Main : Extract
11-17-2016 11:41:26 T#60[0x00000c6c] ERROR - Monitor: Executor - ROI Outside detected in Extract - Main : Extract
11-17-2016 11:41:26 T#44[0x000009a0] ERROR - Monitor: Reset - Save image with graphics failed - Reset_Report_Images : save image with graphics_1_A_A
11-17-2016 11:41:26 T#51[0x00000af0] ERROR - Monitor: Reset - Save image with graphics failed - Reset_Report_Images : save image with graphics_1_A_A
11-17-2016 11:41:26 T#63[0x00000cb0] ERROR - Monitor: Executor - ROI Outside detected in Extract - Main : Extract
11-17-2016 11:41:26 T#69[0x00000ce4] ERROR - Monitor: Executor - ROI Outside detected in Extract - Main : Extract
11-17-2016 11:41:26 T#51[0x00000af0] ERROR - Monitor: Reset - Save image with graphics failed - Reset_Report_Images : save image with graphics_1_A_A
11-17-2016 11:41:26 T#66[0x00000cd4] ERROR - Monitor: Executor - ROI Outside detected in Extract - Main : Extract
11-17-2016 11:41:26 T#57[0x00000c74] ERROR - Monitor: Executor - ROI Outside detected in Extract - Main : Extract
11-17-2016 11:41:26 T#63[0x00000cb0] ERROR - Monitor: Executor - ROI Outside detected in Extract - Main : Extract
11-17-2016 11:41:26 T#54[0x00000c8c] ERROR - Monitor: Executor - ROI Outside detected in Extract - Main : Extract
11-17-2016 11:41:26 T#66[0x00000cd4] ERROR - Monitor: Executor - ROI Outside detected in Extract - Main : Extract
11-17-2016 11:41:26 T#57[0x00000c74] ERROR - Monitor: Executor - ROI Outside detected in Extract - Main : Extract
11-17-2016 11:41:26 T#63[0x00000cb0] ERROR - Monitor: Executor - ROI Outside detected in Extract - Main : Extract
11-17-2016 11:41:26 T#60[0x00000c6c] ERROR - Monitor: Executor - ROI Outside detected in Extract - Main : Extract
11-17-2016 11:41:27 T#54[0x00000c8c] ERROR - Monitor: Executor - ROI Outside detected in Extract - Main : Extract
11-17-2016 11:41:27 T#66[0x00000cd4] ERROR - Monitor: Executor - ROI Outside detected in Extract - Main : Extract
11-17-2016 11:41:27 T#57[0x00000c74] ERROR - Monitor: Executor - ROI Outside detected in Extract - Main : Extract
11-17-2016 11:41:27 T#69[0x00000ce4] ERROR - Monitor: Executor - ROI Outside detected in Extract - Main : Extract
11-17-2016 11:41:27 T#60[0x00000c6c] ERROR - Monitor: Executor - ROI Outside detected in Extract - Main : Extract
11-17-2016 11:41:27 T#60[0x00000c6c] ERROR - Monitor: Reset - Save image with graphics failed - Reset_Report_Images : save image with graphics_1_A_A
11-17-2016 11:41:27 T#54[0x00000c8c] ERROR - Monitor: Executor - ROI Outside detected in Extract - Main : Extract
11-17-2016 11:41:27 T#69[0x00000ce4] ERROR - Monitor: Executor - ROI Outside detected in Extract - Main : Extract
11-17-2016 11:41:27 T#60[0x00000c6c] ERROR - Monitor: Executor - ROI Outside detected in Extract - Main : Extract
11-17-2016 11:41:27 T#44[0x000009a0] ERROR - Monitor: Reset - Save image with graphics failed - Reset_Report_Images : save image with graphics_1_A_A
11-17-2016 11:41:27 T#63[0x00000cb0] ERROR - Monitor: Executor - ROI Outside detected in Extract - Main : Extract
11-17-2016 11:41:27 T#69[0x00000ce4] ERROR - Monitor: Executor - ROI Outside detected in Extract - Main : Extract
11-17-2016 11:41:27 T#66[0x00000cd4] ERROR - Monitor: Executor - ROI Outside detected in Extract - Main : Extract
11-17-2016 11:41:27 T#57[0x00000c74] ERROR - Monitor: Executor - ROI Outside detected in Extract - Main : Extract
11-17-2016 11:41:27 T#63[0x00000cb0] ERROR - Monitor: Executor - ROI Outside detected in Extract - Main : Extract
11-17-2016 11:41:28 T#54[0x00000c8c] ERROR - Monitor: Executor - ROI Outside detected in Extract - Main : Extract
11-17-2016 11:41:28 T#66[0x00000cd4] ERROR - Monitor: Executor - ROI Outside detected in Extract - Main : Extract
11-17-2016 11:41:28 T#57[0x00000c74] ERROR - Monitor: Executor - ROI Outside detected in Extract - Main : Extract
11-17-2016 11:41:28 T#63[0x00000cb0] ERROR - Monitor: Executor - ROI Outside detected in Extract - Main : Extract
11-17-2016 11:41:28 T#69[0x00000ce4] ERROR - Monitor: Reset - Save image with graphics failed - Reset_Report_Images : save image with graphics_1_A_A
11-17-2016 11:41:28 T#60[0x00000c6c] ERROR - Monitor: Executor - ROI Outside detected in Extract - Main : Extract
11-17-2016 11:41:28 T#60[0x00000c6c] ERROR - Monitor: Reset - Save image with graphics failed - Reset_Report_Images : save image with graphics_1_A_A
11-17-2016 11:41:28 T#54[0x00000c8c] ERROR - Monitor: Executor - ROI Outside detected in Extract - Main : Extract
11-17-2016 11:41:28 T#66[0x00000cd4] ERROR - Monitor: Executor - ROI Outside detected in Extract - Main : Extract
11-17-2016 11:41:28 T#57[0x00000c74] ERROR - Monitor: Executor - ROI Outside detected in Extract - Main : Extract
11-17-2016 11:41:28 T#69[0x00000ce4] ERROR - Monitor: Executor - ROI Outside detected in Extract - Main : Extract
11-17-2016 11:41:28 T#60[0x00000c6c] ERROR - Monitor: Executor - ROI Outside detected in Extract - Main : Extract
11-17-2016 11:41:28 T#54[0x00000c8c] ERROR - Monitor: Executor - ROI Outside detected in Extract - Main : Extract
11-17-2016 11:41:28 T#69[0x00000ce4] ERROR - Monitor: Executor - ROI Outside detected in Extract - Main : Extract
11-17-2016 11:41:28 T#69[0x00000ce4] ERROR - Monitor: Reset - Save image with graphics failed - Reset_Report_Images : save image with graphics_1_A_A
11-17-2016 11:41:28 T#60[0x00000c6c] ERROR - Monitor: Executor - ROI Outside detected in Extract - Main : Extract
11-17-2016 11:41:28 T#69[0x00000ce4] ERROR - Monitor: Executor - ROI Outside detected in Extract - Main : Extract
11-17-2016 11:41:28 T#63[0x00000cb0] ERROR - Monitor: Executor - ROI Outside detected in Extract - Main : Extract
11-17-2016 11:41:28 T#69[0x00000ce4] ERROR - Monitor: Reset - Save image with graphics failed - Reset_Report_Images : save image with graphics_1_A_A
11-17-2016 11:41:29 T#66[0x00000cd4] ERROR - Monitor: Executor - ROI Outside detected in Extract - Main : Extract
11-17-2016 11:41:29 T#57[0x00000c74] ERROR - Monitor: Executor - ROI Outside detected in Extract - Main : Extract
11-17-2016 11:41:29 T#63[0x00000cb0] ERROR - Monitor: Executor - ROI Outside detected in Extract - Main : Extract
11-17-2016 11:41:29 T#63[0x00000cb0] ERROR - Monitor: Reset - Save image with graphics failed - Reset_Report_Images : save image with graphics_1_A_A
11-17-2016 11:41:29 T#69[0x00000ce4] ERROR - Monitor: Reset - Save image with graphics failed - Reset_Report_Images : save image with graphics_1_A_A
11-17-2016 11:41:29 T#60[0x00000c6c] ERROR - Monitor: Reset - Save image with graphics failed - Reset_Report_Images : save image with graphics_1_A_A
11-17-2016 11:41:29 T#54[0x00000c8c] ERROR - Monitor: Executor - ROI Outside detected in Extract - Main : Extract
11-17-2016 11:41:29 T#66[0x00000cd4] ERROR - Monitor: Executor - ROI Outside detected in Extract - Main : Extract
11-17-2016 11:41:29 T#57[0x00000c74] ERROR - Monitor: Executor - ROI Outside detected in Extract - Main : Extract
11-17-2016 11:41:29 T#63[0x00000cb0] ERROR - Monitor: Executor - ROI Outside detected in Extract - Main : Extract
11-17-2016 11:41:29 T#69[0x00000ce4] ERROR - Monitor: Reset - Save image with graphics failed - Reset_Report_Images : save image with graphics_1_A_A
11-17-2016 11:41:29 T#60[0x00000c6c] ERROR - Monitor: Executor - ROI Outside detected in Extract - Main : Extract
11-17-2016 11:41:29 T#54[0x00000c8c] ERROR - Monitor: Executor - ROI Outside detected in Extract - Main : Extract
11-17-2016 11:41:29 T#66[0x00000cd4] ERROR - Monitor: Executor - ROI Outside detected in Extract - Main : Extract
11-17-2016 11:41:29 T#57[0x00000c74] ERROR - Monitor: Executor - ROI Outside detected in Extract - Main : Extract
11-17-2016 11:41:29 T#69[0x00000ce4] ERROR - Monitor: Executor - ROI Outside detected in Extract - Main : Extract
11-17-2016 11:41:29 T#63[0x00000cb0] ERROR - Monitor: Reset - Save image with graphics failed - Reset_Report_Images : save image with graphics_1_A_A
11-17-2016 11:41:29 T#60[0x00000c6c] ERROR - Monitor: Executor - ROI Outside detected in Extract - Main : Extract
11-17-2016 11:41:29 T#54[0x00000c8c] ERROR - Monitor: Executor - ROI Outside detected in Extract - Main : Extract
11-17-2016 11:41:29 T#44[0x000009a0] ERROR - Monitor: Reset - Save image with graphics failed - Reset_Report_Images : save image with graphics_1_A_A
11-17-2016 11:41:30 T#69[0x00000ce4] ERROR - Monitor: Executor - ROI Outside detected in Extract - Main : Extract
11-17-2016 11:41:30 T#60[0x00000c6c] ERROR - Monitor: Executor - ROI Outside detected in Extract - Main : Extract
11-17-2016 11:41:30 T#69[0x00000ce4] ERROR - Monitor: Executor - ROI Outside detected in Extract - Main : Extract
11-17-2016 11:41:30 T#63[0x00000cb0] ERROR - Monitor: Executor - ROI Outside detected in Extract - Main : Extract
11-17-2016 11:41:30 T#60[0x00000c6c] ERROR - Monitor: Reset - Save image with graphics failed - Reset_Report_Images : save image with graphics_1_A_A
11-17-2016 11:41:30 T#66[0x00000cd4] ERROR - Monitor: Executor - ROI Outside detected in Extract - Main : Extract
11-17-2016 11:41:30 T#57[0x00000c74] ERROR - Monitor: Executor - ROI Outside detected in Extract - Main : Extract
11-17-2016 11:41:30 T#63[0x00000cb0] ERROR - Monitor: Executor - ROI Outside detected in Extract - Main : Extract
11-17-2016 11:41:30 T#63[0x00000cb0] ERROR - Monitor: Reset - Save image with graphics failed - Reset_Report_Images : save image with graphics_1_A_A
11-17-2016 11:41:30 T#54[0x00000c8c] ERROR - Monitor: Executor - ROI Outside detected in Extract - Main : Extract
11-17-2016 11:41:30 T#66[0x00000cd4] ERROR - Monitor: Executor - ROI Outside detected in Extract - Main : Extract
11-17-2016 11:41:30 T#57[0x00000c74] ERROR - Monitor: Executor - ROI Outside detected in Extract - Main : Extract
11-17-2016 11:41:30 T#63[0x00000cb0] ERROR - Monitor: Executor - ROI Outside detected in Extract - Main : Extract
11-17-2016 11:41:30 T#60[0x00000c6c] ERROR - Monitor: Executor - ROI Outside detected in Extract - Main : Extract
11-17-2016 11:41:30 T#54[0x00000c8c] ERROR - Monitor: Executor - ROI Outside detected in Extract - Main : Extract
11-17-2016 11:41:31 T#44[0x000009a0] ERROR - Monitor: Reset - Save image with graphics failed - Reset_Report_Images : save image with graphics_1_A_A
11-17-2016 11:41:31 T#66[0x00000cd4] ERROR - Monitor: Executor - ROI Outside detected in Extract - Main : Extract
11-17-2016 11:41:31 T#57[0x00000c74] ERROR - Monitor: Executor - ROI Outside detected in Extract - Main : Extract
11-17-2016 11:41:31 T#69[0x00000ce4] ERROR - Monitor: Executor - ROI Outside detected in Extract - Main : Extract
11-17-2016 11:41:31 T#60[0x00000c6c] ERROR - Monitor: Executor - ROI Outside detected in Extract - Main : Extract
11-17-2016 11:41:31 T#54[0x00000c8c] ERROR - Monitor: Executor - ROI Outside detected in Extract - Main : Extract
11-17-2016 11:41:31 T#69[0x00000ce4] ERROR - Monitor: Executor - ROI Outside detected in Extract - Main : Extract
11-17-2016 11:41:31 T#60[0x00000c6c] ERROR - Monitor: Executor - ROI Outside detected in Extract - Main : Extract
11-17-2016 11:41:31 T#60[0x00000c6c] ERROR - Monitor: Reset - Save image with graphics failed - Reset_Report_Images : save image with graphics_1_A_A
11-17-2016 11:41:31 T#69[0x00000ce4] ERROR - Monitor: Executor - ROI Outside detected in Extract - Main : Extract
11-17-2016 11:41:31 T#63[0x00000cb0] ERROR - Monitor: Executor - ROI Outside detected in Extract - Main : Extract
11-17-2016 11:41:31 T#66[0x00000cd4] ERROR - Monitor: Executor - ROI Outside detected in Extract - Main : Extract
11-17-2016 11:41:31 T#57[0x00000c74] ERROR - Monitor: Executor - ROI Outside detected in Extract - Main : Extract
11-17-2016 11:41:31 T#63[0x00000cb0] ERROR - Monitor: Executor - ROI Outside detected in Extract - Main : Extract
11-17-2016 11:41:32 T#54[0x00000c8c] ERROR - Monitor: Executor - ROI Outside detected in Extract - Main : Extract
11-17-2016 11:41:32 T#66[0x00000cd4] ERROR - Monitor: Executor - ROI Outside detected in Extract - Main : Extract
11-17-2016 11:41:32 T#57[0x00000c74] ERROR - Monitor: Executor - ROI Outside detected in Extract - Main : Extract
11-17-2016 11:41:32 T#63[0x00000cb0] ERROR - Monitor: Executor - ROI Outside detected in Extract - Main : Extract
11-17-2016 11:41:32 T#60[0x00000c6c] ERROR - Monitor: Executor - ROI Outside detected in Extract - Main : Extract
11-17-2016 11:41:32 T#54[0x00000c8c] ERROR - Monitor: Executor - ROI Outside detected in Extract - Main : Extract
11-17-2016 11:41:32 T#66[0x00000cd4] ERROR - Monitor: Executor - ROI Outside detected in Extract - Main : Extract
11-17-2016 11:41:32 T#57[0x00000c74] ERROR - Monitor: Executor - ROI Outside detected in Extract - Main : Extract
11-17-2016 11:41:32 T#51[0x00000af0] ERROR - Monitor: Reset - Save image with graphics failed - Reset_Report_Images : save image with graphics_1_A_A
11-17-2016 11:41:32 T#69[0x00000ce4] ERROR - Monitor: Executor - ROI Outside detected in Extract - Main : Extract
11-17-2016 11:41:32 T#60[0x00000c6c] ERROR - Monitor: Executor - ROI Outside detected in Extract - Main : Extract
11-17-2016 11:41:32 T#44[0x000009a0] ERROR - Monitor: Reset - Save image with graphics failed - Reset_Report_Images : save image with graphics_1_A_A
11-17-2016 11:41:32 T#54[0x00000c8c] ERROR - Monitor: Executor - ROI Outside detected in Extract - Main : Extract
11-17-2016 11:41:32 T#69[0x00000ce4] ERROR - Monitor: Executor - ROI Outside detected in Extract - Main : Extract
11-17-2016 11:41:32 T#44[0x000009a0] ERROR - Monitor: Reset - Save image with graphics failed - Reset_Report_Images : save image with graphics_1_A_A
11-17-2016 11:41:32 T#60[0x00000c6c] ERROR - Monitor: Executor - ROI Outside detected in Extract - Main : Extract
11-17-2016 11:41:32 T#69[0x00000ce4] ERROR - Monitor: Executor - ROI Outside detected in Extract - Main : Extract
11-17-2016 11:41:32 T#63[0x00000cb0] ERROR - Monitor: Executor - ROI Outside detected in Extract - Main : Extract
11-17-2016 11:41:33 T#66[0x00000cd4] ERROR - Monitor: Executor - ROI Outside detected in Extract - Main : Extract
11-17-2016 11:41:33 T#57[0x00000c74] ERROR - Monitor: Executor - ROI Outside detected in Extract - Main : Extract
11-17-2016 11:41:33 T#63[0x00000cb0] ERROR - Monitor: Executor - ROI Outside detected in Extract - Main : Extract
11-17-2016 11:41:33 T#54[0x00000c8c] ERROR - Monitor: Executor - ROI Outside detected in Extract - Main : Extract
11-17-2016 11:41:33 T#66[0x00000cd4] ERROR - Monitor: Executor - ROI Outside detected in Extract - Main : Extract
11-17-2016 11:41:33 T#57[0x00000c74] ERROR - Monitor: Executor - ROI Outside detected in Extract - Main : Extract
11-17-2016 11:41:33 T#63[0x00000cb0] ERROR - Monitor: Executor - ROI Outside detected in Extract - Main : Extract
11-17-2016 11:41:33 T#60[0x00000c6c] ERROR - Monitor: Executor - ROI Outside detected in Extract - Main : Extract
11-17-2016 11:41:33 T#54[0x00000c8c] ERROR - Monitor: Executor - ROI Outside detected in Extract - Main : Extract
11-17-2016 11:41:33 T#66[0x00000cd4] ERROR - Monitor: Executor - ROI Outside detected in Extract - Main : Extract
11-17-2016 11:41:33 T#57[0x00000c74] ERROR - Monitor: Executor - ROI Outside detected in Extract - Main : Extract
11-17-2016 11:41:33 T#69[0x00000ce4] ERROR - Monitor: Executor - ROI Outside detected in Extract - Main : Extract
11-17-2016 11:41:33 T#69[0x00000ce4] ERROR - Monitor: Reset - Save image with graphics failed - Reset_Report_Images : save image with graphics_1_A_A
11-17-2016 11:41:33 T#60[0x00000c6c] ERROR - Monitor: Executor - ROI Outside detected in Extract - Main : Extract
11-17-2016 11:41:33 T#54[0x00000c8c] ERROR - Monitor: Executor - ROI Outside detected in Extract - Main : Extract
11-17-2016 11:41:34 T#69[0x00000ce4] ERROR - Monitor: Executor - ROI Outside detected in Extract - Main : Extract
11-17-2016 11:41:34 T#60[0x00000c6c] ERROR - Monitor: Executor - ROI Outside detected in Extract - Main : Extract
11-17-2016 11:41:34 T#69[0x00000ce4] ERROR - Monitor: Executor - ROI Outside detected in Extract - Main : Extract
11-17-2016 11:41:34 T#63[0x00000cb0] ERROR - Monitor: Executor - ROI Outside detected in Extract - Main : Extract
11-17-2016 11:41:34 T#66[0x00000cd4] ERROR - Monitor: Executor - ROI Outside detected in Extract - Main : Extract
11-17-2016 11:41:34 T#57[0x00000c74] ERROR - Monitor: Executor - ROI Outside detected in Extract - Main : Extract
11-17-2016 11:41:34 T#63[0x00000cb0] ERROR - Monitor: Executor - ROI Outside detected in Extract - Main : Extract
11-17-2016 11:41:34 T#54[0x00000c8c] ERROR - Monitor: Executor - ROI Outside detected in Extract - Main : Extract
11-17-2016 11:41:34 T#54[0x00000c8c] ERROR - Monitor: Reset - Save image with graphics failed - Reset_Report_Images : save image with graphics_1_A_A
11-17-2016 11:41:34 T#66[0x00000cd4] ERROR - Monitor: Executor - ROI Outside detected in Extract - Main : Extract
11-17-2016 11:41:34 T#57[0x00000c74] ERROR - Monitor: Executor - ROI Outside detected in Extract - Main : Extract
11-17-2016 11:41:34 T#63[0x00000cb0] ERROR - Monitor: Executor - ROI Outside detected in Extract - Main : Extract
11-17-2016 11:41:34 T#60[0x00000c6c] ERROR - Monitor: Executor - ROI Outside detected in Extract - Main : Extract
11-17-2016 11:41:34 T#54[0x00000c8c] ERROR - Monitor: Executor - ROI Outside detected in Extract - Main : Extract
11-17-2016 11:41:35 T#66[0x00000cd4] ERROR - Monitor: Executor - ROI Outside detected in Extract - Main : Extract
11-17-2016 11:41:35 T#57[0x00000c74] ERROR - Monitor: Executor - ROI Outside detected in Extract - Main : Extract
11-17-2016 11:41:35 T#69[0x00000ce4] ERROR - Monitor: Executor - ROI Outside detected in Extract - Main : Extract
11-17-2016 11:41:35 T#60[0x00000c6c] ERROR - Monitor: Executor - ROI Outside detected in Extract - Main : Extract
11-17-2016 11:41:35 T#54[0x00000c8c] ERROR - Monitor: Executor - ROI Outside detected in Extract - Main : Extract
11-17-2016 11:41:35 T#69[0x00000ce4] ERROR - Monitor: Executor - ROI Outside detected in Extract - Main : Extract
11-17-2016 11:41:35 T#60[0x00000c6c] ERROR - Monitor: Executor - ROI Outside detected in Extract - Main : Extract
11-17-2016 11:41:35 T#69[0x00000ce4] ERROR - Monitor: Executor - ROI Outside detected in Extract - Main : Extract
11-17-2016 11:41:35 T#63[0x00000cb0] ERROR - Monitor: Executor - ROI Outside detected in Extract - Main : Extract
11-17-2016 11:41:35 T#51[0x00000af0] ERROR - Monitor: Reset - Save image with graphics failed - Reset_Report_Images : save image with graphics_1_A_A
11-17-2016 11:41:35 T#66[0x00000cd4] ERROR - Monitor: Executor - ROI Outside detected in Extract - Main : Extract
11-17-2016 11:41:35 T#57[0x00000c74] ERROR - Monitor: Executor - ROI Outside detected in Extract - Main : Extract
11-17-2016 11:41:35 T#63[0x00000cb0] ERROR - Monitor: Executor - ROI Outside detected in Extract - Main : Extract
11-17-2016 11:41:36 T#54[0x00000c8c] ERROR - Monitor: Executor - ROI Outside detected in Extract - Main : Extract
11-17-2016 11:41:36 T#66[0x00000cd4] ERROR - Monitor: Executor - ROI Outside detected in Extract - Main : Extract
11-17-2016 11:41:36 T#57[0x00000c74] ERROR - Monitor: Executor - ROI Outside detected in Extract - Main : Extract
11-17-2016 11:41:36 T#63[0x00000cb0] ERROR - Monitor: Executor - ROI Outside detected in Extract - Main : Extract
11-17-2016 11:41:36 T#60[0x00000c6c] ERROR - Monitor: Executor - ROI Outside detected in Extract - Main : Extract
11-17-2016 11:41:36 T#54[0x00000c8c] ERROR - Monitor: Executor - ROI Outside detected in Extract - Main : Extract
11-17-2016 11:41:36 T#66[0x00000cd4] ERROR - Monitor: Executor - ROI Outside detected in Extract - Main : Extract
11-17-2016 11:41:36 T#57[0x00000c74] ERROR - Monitor: Executor - ROI Outside detected in Extract - Main : Extract
11-17-2016 11:41:36 T#69[0x00000ce4] ERROR - Monitor: Executor - ROI Outside detected in Extract - Main : Extract
11-17-2016 11:41:36 T#60[0x00000c6c] ERROR - Monitor: Executor - ROI Outside detected in Extract - Main : Extract
11-17-2016 11:41:36 T#54[0x00000c8c] ERROR - Monitor: Executor - ROI Outside detected in Extract - Main : Extract
11-17-2016 11:41:36 T#69[0x00000ce4] ERROR - Monitor: Executor - ROI Outside detected in Extract - Main : Extract
11-17-2016 11:41:36 T#60[0x00000c6c] ERROR - Monitor: Executor - ROI Outside detected in Extract - Main : Extract
11-17-2016 11:41:36 T#54[0x00000c8c] ERROR - Monitor: Reset - Save image with graphics failed - Reset_Report_Images : save image with graphics_1_A_A
11-17-2016 11:41:36 T#69[0x00000ce4] ERROR - Monitor: Executor - ROI Outside detected in Extract - Main : Extract
11-17-2016 11:41:36 T#63[0x00000cb0] ERROR - Monitor: Executor - ROI Outside detected in Extract - Main : Extract
11-17-2016 11:41:37 T#66[0x00000cd4] ERROR - Monitor: Executor - ROI Outside detected in Extract - Main : Extract
11-17-2016 11:41:37 T#57[0x00000c74] ERROR - Monitor: Executor - ROI Outside detected in Extract - Main : Extract
11-17-2016 11:41:37 T#69[0x00000ce4] ERROR - Monitor: Reset - Save image with graphics failed - Reset_Report_Images : save image with graphics_1_A_A
11-17-2016 11:41:37 T#63[0x00000cb0] ERROR - Monitor: Executor - ROI Outside detected in Extract - Main : Extract
11-17-2016 11:41:37 T#60[0x00000c6c] ERROR - Monitor: Reset - Save image with graphics failed - Reset_Report_Images : save image with graphics_1_A_A
11-17-2016 11:41:37 T#54[0x00000c8c] ERROR - Monitor: Executor - ROI Outside detected in Extract - Main : Extract
11-17-2016 11:41:37 T#66[0x00000cd4] ERROR - Monitor: Executor - ROI Outside detected in Extract - Main : Extract
11-17-2016 11:41:37 T#57[0x00000c74] ERROR - Monitor: Executor - ROI Outside detected in Extract - Main : Extract
11-17-2016 11:41:37 T#57[0x00000c74] ERROR - Monitor: Reset - Save image with graphics failed - Reset_Report_Images : save image with graphics_1_A_A
11-17-2016 11:41:37 T#63[0x00000cb0] ERROR - Monitor: Executor - ROI Outside detected in Extract - Main : Extract
11-17-2016 11:41:37 T#60[0x00000c6c] ERROR - Monitor: Executor - ROI Outside detected in Extract - Main : Extract
11-17-2016 11:41:37 T#54[0x00000c8c] ERROR - Monitor: Executor - ROI Outside detected in Extract - Main : Extract
11-17-2016 11:41:37 T#66[0x00000cd4] ERROR - Monitor: Executor - ROI Outside detected in Extract - Main : Extract
11-17-2016 11:41:37 T#66[0x00000cd4] ERROR - Monitor: Reset - Save image with graphics failed - Reset_Report_Images : save image with graphics_1_A_A
11-17-2016 11:41:37 T#57[0x00000c74] ERROR - Monitor: Executor - ROI Outside detected in Extract - Main : Extract
11-17-2016 11:41:37 T#69[0x00000ce4] ERROR - Monitor: Executor - ROI Outside detected in Extract - Main : Extract
11-17-2016 11:41:37 T#44[0x000009a0] ERROR - Monitor: Reset - Save image with graphics failed - Reset_Report_Images : save image with graphics_1_A_A
11-17-2016 11:41:37 T#60[0x00000c6c] ERROR - Monitor: Executor - ROI Outside detected in Extract - Main : Extract
11-17-2016 11:41:37 T#54[0x00000c8c] ERROR - Monitor: Executor - ROI Outside detected in Extract - Main : Extract
11-17-2016 11:41:37 T#51[0x00000af0] ERROR - Monitor: Reset - Save image with graphics failed - Reset_Report_Images : save image with graphics_1_A_A
11-17-2016 11:41:38 T#69[0x00000ce4] ERROR - Monitor: Executor - ROI Outside detected in Extract - Main : Extract
11-17-2016 11:41:38 T#60[0x00000c6c] ERROR - Monitor: Executor - ROI Outside detected in Extract - Main : Extract
11-17-2016 11:41:38 T#44[0x000009a0] ERROR - Monitor: Reset - Save image with graphics failed - Reset_Report_Images : save image with graphics_1_A_A
11-17-2016 11:41:38 T#69[0x00000ce4] ERROR - Monitor: Executor - ROI Outside detected in Extract - Main : Extract
11-17-2016 11:41:38 T#63[0x00000cb0] ERROR - Monitor: Executor - ROI Outside detected in Extract - Main : Extract
11-17-2016 11:41:38 T#60[0x00000c6c] ERROR - Monitor: Reset - Save image with graphics failed - Reset_Report_Images : save image with graphics_1_A_A
11-17-2016 11:41:38 T#66[0x00000cd4] ERROR - Monitor: Executor - ROI Outside detected in Extract - Main : Extract
11-17-2016 11:41:38 T#57[0x00000c74] ERROR - Monitor: Executor - ROI Outside detected in Extract - Main : Extract
11-17-2016 11:41:38 T#63[0x00000cb0] ERROR - Monitor: Executor - ROI Outside detected in Extract - Main : Extract
11-17-2016 11:41:38 T#54[0x00000c8c] ERROR - Monitor: Executor - ROI Outside detected in Extract - Main : Extract
11-17-2016 11:41:38 T#66[0x00000cd4] ERROR - Monitor: Executor - ROI Outside detected in Extract - Main : Extract
11-17-2016 11:41:38 T#66[0x00000cd4] ERROR - Monitor: Reset - Save image with graphics failed - Reset_Report_Images : save image with graphics_1_A_A
11-17-2016 11:41:38 T#57[0x00000c74] ERROR - Monitor: Executor - ROI Outside detected in Extract - Main : Extract
11-17-2016 11:41:38 T#63[0x00000cb0] ERROR - Monitor: Executor - ROI Outside detected in Extract - Main : Extract
11-17-2016 11:41:38 T#60[0x00000c6c] ERROR - Monitor: Executor - ROI Outside detected in Extract - Main : Extract
11-17-2016 11:41:38 T#54[0x00000c8c] ERROR - Monitor: Executor - ROI Outside detected in Extract - Main : Extract
11-17-2016 11:41:39 T#66[0x00000cd4] ERROR - Monitor: Executor - ROI Outside detected in Extract - Main : Extract
11-17-2016 11:41:39 T#57[0x00000c74] ERROR - Monitor: Executor - ROI Outside detected in Extract - Main : Extract
11-17-2016 11:41:39 T#69[0x00000ce4] ERROR - Monitor: Executor - ROI Outside detected in Extract - Main : Extract
11-17-2016 11:41:39 T#60[0x00000c6c] ERROR - Monitor: Executor - ROI Outside detected in Extract - Main : Extract
11-17-2016 11:41:39 T#54[0x00000c8c] ERROR - Monitor: Executor - ROI Outside detected in Extract - Main : Extract
11-17-2016 11:41:39 T#69[0x00000ce4] ERROR - Monitor: Executor - ROI Outside detected in Extract - Main : Extract
11-17-2016 11:41:39 T#60[0x00000c6c] ERROR - Monitor: Executor - ROI Outside detected in Extract - Main : Extract
11-17-2016 11:41:39 T#69[0x00000ce4] ERROR - Monitor: Executor - ROI Outside detected in Extract - Main : Extract
11-17-2016 11:41:39 T#63[0x00000cb0] ERROR - Monitor: Executor - ROI Outside detected in Extract - Main : Extract
11-17-2016 11:41:39 T#66[0x00000cd4] ERROR - Monitor: Executor - ROI Outside detected in Extract - Main : Extract
11-17-2016 11:41:39 T#57[0x00000c74] ERROR - Monitor: Executor - ROI Outside detected in Extract - Main : Extract
11-17-2016 11:41:39 T#63[0x00000cb0] ERROR - Monitor: Executor - ROI Outside detected in Extract - Main : Extract
11-17-2016 11:41:40 T#54[0x00000c8c] ERROR - Monitor: Executor - ROI Outside detected in Extract - Main : Extract
11-17-2016 11:41:40 T#66[0x00000cd4] ERROR - Monitor: Executor - ROI Outside detected in Extract - Main : Extract
11-17-2016 11:41:40 T#66[0x00000cd4] ERROR - Monitor: Reset - Save image with graphics failed - Reset_Report_Images : save image with graphics_1_A_A
11-17-2016 11:41:40 T#57[0x00000c74] ERROR - Monitor: Executor - ROI Outside detected in Extract - Main : Extract
11-17-2016 11:41:40 T#63[0x00000cb0] ERROR - Monitor: Executor - ROI Outside detected in Extract - Main : Extract
11-17-2016 11:41:40 T#60[0x00000c6c] ERROR - Monitor: Executor - ROI Outside detected in Extract - Main : Extract
11-17-2016 11:41:40 T#54[0x00000c8c] ERROR - Monitor: Executor - ROI Outside detected in Extract - Main : Extract
11-17-2016 11:41:40 T#66[0x00000cd4] ERROR - Monitor: Executor - ROI Outside detected in Extract - Main : Extract
11-17-2016 11:41:40 T#57[0x00000c74] ERROR - Monitor: Executor - ROI Outside detected in Extract - Main : Extract
11-17-2016 11:41:40 T#69[0x00000ce4] ERROR - Monitor: Executor - ROI Outside detected in Extract - Main : Extract
11-17-2016 11:41:40 T#60[0x00000c6c] ERROR - Monitor: Executor - ROI Outside detected in Extract - Main : Extract
11-17-2016 11:41:40 T#60[0x00000c6c] ERROR - Monitor: Reset - Save image with graphics failed - Reset_Report_Images : save image with graphics_1_A_A
11-17-2016 11:41:40 T#54[0x00000c8c] ERROR - Monitor: Executor - ROI Outside detected in Extract - Main : Extract
11-17-2016 11:41:40 T#69[0x00000ce4] ERROR - Monitor: Executor - ROI Outside detected in Extract - Main : Extract
11-17-2016 11:41:40 T#60[0x00000c6c] ERROR - Monitor: Executor - ROI Outside detected in Extract - Main : Extract
11-17-2016 11:41:40 T#44[0x000009a0] ERROR - Monitor: Reset - Save image with graphics failed - Reset_Report_Images : save image with graphics_1_A_A
11-17-2016 11:41:40 T#69[0x00000ce4] ERROR - Monitor: Executor - ROI Outside detected in Extract - Main : Extract
11-17-2016 11:41:40 T#63[0x00000cb0] ERROR - Monitor: Executor - ROI Outside detected in Extract - Main : Extract
11-17-2016 11:41:41 T#66[0x00000cd4] ERROR - Monitor: Executor - ROI Outside detected in Extract - Main : Extract
11-17-2016 11:41:41 T#57[0x00000c74] ERROR - Monitor: Executor - ROI Outside detected in Extract - Main : Extract
11-17-2016 11:41:41 T#63[0x00000cb0] ERROR - Monitor: Executor - ROI Outside detected in Extract - Main : Extract
11-17-2016 11:41:41 T#63[0x00000cb0] ERROR - Monitor: Reset - Save image with graphics failed - Reset_Report_Images : save image with graphics_1_A_A
11-17-2016 11:41:41 T#54[0x00000c8c] ERROR - Monitor: Executor - ROI Outside detected in Extract - Main : Extract
11-17-2016 11:41:41 T#66[0x00000cd4] ERROR - Monitor: Executor - ROI Outside detected in Extract - Main : Extract
11-17-2016 11:41:41 T#57[0x00000c74] ERROR - Monitor: Executor - ROI Outside detected in Extract - Main : Extract
11-17-2016 11:41:41 T#63[0x00000cb0] ERROR - Monitor: Executor - ROI Outside detected in Extract - Main : Extract
11-17-2016 11:41:41 T#63[0x00000cb0] ERROR - Monitor: Reset - Save image with graphics failed - Reset_Report_Images : save image with graphics_1_A_A
11-17-2016 11:41:41 T#60[0x00000c6c] ERROR - Monitor: Executor - ROI Outside detected in Extract - Main : Extract
11-17-2016 11:41:41 T#60[0x00000c6c] ERROR - Monitor: Reset - Save image with graphics failed - Reset_Report_Images : save image with graphics_1_A_A
11-17-2016 11:41:41 T#54[0x00000c8c] ERROR - Monitor: Executor - ROI Outside detected in Extract - Main : Extract
11-17-2016 11:41:41 T#66[0x00000cd4] ERROR - Monitor: Executor - ROI Outside detected in Extract - Main : Extract
11-17-2016 11:41:41 T#57[0x00000c74] ERROR - Monitor: Executor - ROI Outside detected in Extract - Main : Extract
11-17-2016 11:41:41 T#69[0x00000ce4] ERROR - Monitor: Executor - ROI Outside detected in Extract - Main : Extract
11-17-2016 11:41:41 T#63[0x00000cb0] ERROR - Monitor: Reset - Save image with graphics failed - Reset_Report_Images : save image with graphics_1_A_A
11-17-2016 11:41:41 T#60[0x00000c6c] ERROR - Monitor: Executor - ROI Outside detected in Extract - Main : Extract
11-17-2016 11:41:41 T#54[0x00000c8c] ERROR - Monitor: Executor - ROI Outside detected in Extract - Main : Extract
11-17-2016 11:41:42 T#69[0x00000ce4] ERROR - Monitor: Executor - ROI Outside detected in Extract - Main : Extract
11-17-2016 11:41:42 T#69[0x00000ce4] ERROR - Monitor: Reset - Save image with graphics failed - Reset_Report_Images : save image with graphics_1_A_A
11-17-2016 11:41:42 T#60[0x00000c6c] ERROR - Monitor: Executor - ROI Outside detected in Extract - Main : Extract
11-17-2016 11:41:42 T#69[0x00000ce4] ERROR - Monitor: Executor - ROI Outside detected in Extract - Main : Extract
11-17-2016 11:41:42 T#63[0x00000cb0] ERROR - Monitor: Executor - ROI Outside detected in Extract - Main : Extract
11-17-2016 11:41:42 T#63[0x00000cb0] ERROR - Monitor: Reset - Save image with graphics failed - Reset_Report_Images : save image with graphics_1_A_A
11-17-2016 11:41:42 T#66[0x00000cd4] ERROR - Monitor: Executor - ROI Outside detected in Extract - Main : Extract
11-17-2016 11:41:42 T#57[0x00000c74] ERROR - Monitor: Executor - ROI Outside detected in Extract - Main : Extract
11-17-2016 11:41:42 T#63[0x00000cb0] ERROR - Monitor: Executor - ROI Outside detected in Extract - Main : Extract
11-17-2016 13:29:15 T#2[0x00000e6c] INFO  - Vision Engine version: 7020102 starting
11-17-2016 13:29:24 T#2[0x00000e6c] INFO  - Engine starting: 1001
11-17-2016 13:29:28 T#2[0x00000e6c] INFO  - Vision Engine version: 7020102 starting
11-17-2016 13:29:29 T#2[0x00000e6c] INFO  - Engine starting: 1001
11-17-2016 13:29:33 T#2[0x00000e6c] INFO  - Vision Engine version: 7020102 starting
11-17-2016 13:29:33 T#2[0x00000e6c] INFO  - Engine starting: 1001
11-17-2016 13:29:34 T#2[0x00000e6c] INFO  - Vision Engine version: 7020102 starting
11-17-2016 13:29:34 T#2[0x00000e6c] INFO  - Engine starting: 1001
11-17-2016 13:29:34 T#2[0x00000e6c] INFO  - Vision Engine version: 7020102 starting
11-17-2016 13:29:35 T#2[0x00000e6c] INFO  - Engine starting: 1001
11-17-2016 13:29:35 T#2[0x00000e6c] INFO  - Vision Engine version: 7020102 starting
11-17-2016 13:29:36 T#2[0x00000e6c] INFO  - Engine starting: 1001
11-17-2016 13:29:36 T#2[0x00000e6c] INFO  - Vision Engine version: 7020102 starting
11-17-2016 13:29:36 T#2[0x00000e6c] INFO  - Engine starting: 1001
11-17-2016 13:29:36 T#2[0x00000e6c] INFO  - Vision Engine version: 7020102 starting
11-17-2016 13:29:37 T#2[0x00000e6c] INFO  - Engine starting: 1001
11-17-2016 13:29:37 T#2[0x00000e6c] INFO  - Load starts
11-17-2016 13:29:37 T#2[0x00000e6c] INFO  - [[None]] FTP image buffer is default: "C:\ProgramData\Teledyne DALSA\Sherlock\images"
11-17-2016 13:29:37 T#2[0x00000e6c] INFO  - [[None]] FTP image buffer is default: "C:\ProgramData\Teledyne DALSA\Sherlock\images"
11-17-2016 13:29:37 T#2[0x00000e6c] INFO  - [[None]] FTP image buffer is default: "C:\ProgramData\Teledyne DALSA\Sherlock\images"
11-17-2016 13:29:37 T#2[0x00000e6c] INFO  - [[None]] FTP image buffer is default: "C:\ProgramData\Teledyne DALSA\Sherlock\images"
11-17-2016 13:29:37 T#2[0x00000e6c] INFO  - [[None]] FTP image buffer is default: "C:\ProgramData\Teledyne DALSA\Sherlock\images"
11-17-2016 13:29:37 T#2[0x00000e6c] INFO  - Load finished
11-17-2016 13:29:37 T#2[0x00000e6c] INFO  - Load starts
11-17-2016 13:29:37 T#2[0x00000e6c] INFO  - [[None]] FTP image buffer is default: "C:\ProgramData\Teledyne DALSA\Sherlock\images"
11-17-2016 13:29:37 T#2[0x00000e6c] INFO  - [[None]] FTP image buffer is default: "C:\ProgramData\Teledyne DALSA\Sherlock\images"
11-17-2016 13:29:37 T#2[0x00000e6c] INFO  - [[None]] FTP image buffer is default: "C:\ProgramData\Teledyne DALSA\Sherlock\images"
11-17-2016 13:29:37 T#2[0x00000e6c] INFO  - [[None]] FTP image buffer is default: "C:\ProgramData\Teledyne DALSA\Sherlock\images"
11-17-2016 13:29:37 T#2[0x00000e6c] INFO  - [[None]] FTP image buffer is default: "C:\ProgramData\Teledyne DALSA\Sherlock\images"
11-17-2016 13:29:38 T#2[0x00000e6c] INFO  - Load finished
11-17-2016 13:29:38 T#2[0x00000e6c] INFO  - Load starts
11-17-2016 13:29:38 T#2[0x00000e6c] INFO  - [[None]] FTP image buffer is default: "C:\ProgramData\Teledyne DALSA\Sherlock\images"
11-17-2016 13:29:38 T#2[0x00000e6c] INFO  - [[None]] FTP image buffer is default: "C:\ProgramData\Teledyne DALSA\Sherlock\images"
11-17-2016 13:29:38 T#2[0x00000e6c] INFO  - [[None]] FTP image buffer is default: "C:\ProgramData\Teledyne DALSA\Sherlock\images"
11-17-2016 13:29:38 T#2[0x00000e6c] INFO  - [[None]] FTP image buffer is default: "C:\ProgramData\Teledyne DALSA\Sherlock\images"
11-17-2016 13:29:38 T#2[0x00000e6c] INFO  - [[None]] FTP image buffer is default: "C:\ProgramData\Teledyne DALSA\Sherlock\images"
11-17-2016 13:29:38 T#2[0x00000e6c] INFO  - Load finished
11-17-2016 13:29:38 T#2[0x00000e6c] INFO  - Load starts
11-17-2016 13:29:38 T#2[0x00000e6c] INFO  - [[None]] FTP image buffer is default: "C:\ProgramData\Teledyne DALSA\Sherlock\images"
11-17-2016 13:29:38 T#2[0x00000e6c] INFO  - [[None]] FTP image buffer is default: "C:\ProgramData\Teledyne DALSA\Sherlock\images"
11-17-2016 13:29:38 T#2[0x00000e6c] INFO  - [[None]] FTP image buffer is default: "C:\ProgramData\Teledyne DALSA\Sherlock\images"
11-17-2016 13:29:38 T#2[0x00000e6c] INFO  - [[None]] FTP image buffer is default: "C:\ProgramData\Teledyne DALSA\Sherlock\images"
11-17-2016 13:29:38 T#2[0x00000e6c] INFO  - [[None]] FTP image buffer is default: "C:\ProgramData\Teledyne DALSA\Sherlock\images"
11-17-2016 13:29:39 T#2[0x00000e6c] INFO  - Load finished
11-17-2016 13:29:39 T#2[0x00000e6c] INFO  - Load starts
11-17-2016 13:29:39 T#2[0x00000e6c] INFO  - [[None]] FTP image buffer is default: "C:\ProgramData\Teledyne DALSA\Sherlock\images"
11-17-2016 13:29:39 T#2[0x00000e6c] INFO  - [[None]] FTP image buffer is default: "C:\ProgramData\Teledyne DALSA\Sherlock\images"
11-17-2016 13:29:39 T#2[0x00000e6c] INFO  - [[None]] FTP image buffer is default: "C:\ProgramData\Teledyne DALSA\Sherlock\images"
11-17-2016 13:29:39 T#2[0x00000e6c] INFO  - [[None]] FTP image buffer is default: "C:\ProgramData\Teledyne DALSA\Sherlock\images"
11-17-2016 13:29:39 T#2[0x00000e6c] INFO  - [[None]] FTP image buffer is default: "C:\ProgramData\Teledyne DALSA\Sherlock\images"
11-17-2016 13:29:39 T#2[0x00000e6c] INFO  - Load finished
11-17-2016 13:29:39 T#2[0x00000e6c] INFO  - Load starts
11-17-2016 13:29:39 T#2[0x00000e6c] INFO  - [[None]] FTP image buffer is default: "C:\ProgramData\Teledyne DALSA\Sherlock\images"
11-17-2016 13:29:39 T#2[0x00000e6c] INFO  - [[None]] FTP image buffer is default: "C:\ProgramData\Teledyne DALSA\Sherlock\images"
11-17-2016 13:29:39 T#2[0x00000e6c] INFO  - [[None]] FTP image buffer is default: "C:\ProgramData\Teledyne DALSA\Sherlock\images"
11-17-2016 13:29:39 T#2[0x00000e6c] INFO  - [[None]] FTP image buffer is default: "C:\ProgramData\Teledyne DALSA\Sherlock\images"
11-17-2016 13:29:40 T#2[0x00000e6c] INFO  - [[None]] FTP image buffer is default: "C:\ProgramData\Teledyne DALSA\Sherlock\images"
11-17-2016 13:29:40 T#2[0x00000e6c] INFO  - Load finished
11-17-2016 13:29:40 T#2[0x00000e6c] INFO  - Load starts
11-17-2016 13:29:40 T#2[0x00000e6c] INFO  - [[None]] FTP image buffer is default: "C:\ProgramData\Teledyne DALSA\Sherlock\images"
11-17-2016 13:29:40 T#2[0x00000e6c] INFO  - [[None]] FTP image buffer is default: "C:\ProgramData\Teledyne DALSA\Sherlock\images"
11-17-2016 13:29:40 T#2[0x00000e6c] INFO  - [[None]] FTP image buffer is default: "C:\ProgramData\Teledyne DALSA\Sherlock\images"
11-17-2016 13:29:40 T#2[0x00000e6c] INFO  - [[None]] FTP image buffer is default: "C:\ProgramData\Teledyne DALSA\Sherlock\images"
11-17-2016 13:29:40 T#2[0x00000e6c] INFO  - [[None]] FTP image buffer is default: "C:\ProgramData\Teledyne DALSA\Sherlock\images"
11-17-2016 13:29:40 T#2[0x00000e6c] INFO  - Load finished
11-17-2016 13:29:40 T#2[0x00000e6c] INFO  - Load starts
11-17-2016 13:29:40 T#2[0x00000e6c] INFO  - [[None]] FTP image buffer is default: "C:\ProgramData\Teledyne DALSA\Sherlock\images"
11-17-2016 13:29:40 T#2[0x00000e6c] INFO  - [[None]] FTP image buffer is default: "C:\ProgramData\Teledyne DALSA\Sherlock\images"
11-17-2016 13:29:40 T#2[0x00000e6c] INFO  - [[None]] FTP image buffer is default: "C:\ProgramData\Teledyne DALSA\Sherlock\images"
11-17-2016 13:29:40 T#2[0x00000e6c] INFO  - [[None]] FTP image buffer is default: "C:\ProgramData\Teledyne DALSA\Sherlock\images"
11-17-2016 13:29:41 T#2[0x00000e6c] INFO  - [[None]] FTP image buffer is default: "C:\ProgramData\Teledyne DALSA\Sherlock\images"
11-17-2016 13:29:41 T#2[0x00000e6c] INFO  - Load finished
11-17-2016 13:29:43 T#66[0x00000288] INFO  - Vision Engine version: 7020102 starting
11-17-2016 13:29:43 T#51[0x00000b08] INFO  - Vision Engine version: 7020102 starting
11-17-2016 13:29:43 T#54[0x00000c44] INFO  - Vision Engine version: 7020102 starting
11-17-2016 13:29:43 T#44[0x00000fd0] INFO  - Vision Engine version: 7020102 starting
11-17-2016 13:29:43 T#63[0x00000cd0] INFO  - Vision Engine version: 7020102 starting
11-17-2016 13:29:43 T#69[0x00000150] INFO  - Vision Engine version: 7020102 starting
11-17-2016 13:29:43 T#57[0x00000c78] INFO  - Vision Engine version: 7020102 starting
11-17-2016 13:29:43 T#60[0x00000aec] INFO  - Vision Engine version: 7020102 starting
11-17-2016 13:29:46 T#51[0x00000b08] INFO  - Engine starting: 1001
11-17-2016 13:29:46 T#51[0x00000b08] ERROR - Monitor: Script - Set tool and inspection limits (line 39) : Error #1 in "Set tool and inspection limits" at line #39. ReferenceError: hole_diameter_px is not defined - Main : Set tool and inspection limits
11-17-2016 13:29:46 T#51[0x00000b08] ERROR - Monitor: Executor - Script error detected in Set tool and inspection limits - Main : Set tool and inspection limits
11-17-2016 13:29:46 T#51[0x00000b08] ERROR - Monitor: Executor - Halting on error
11-17-2016 13:29:46 T#44[0x00000fd0] INFO  - Engine starting: 1001
11-17-2016 13:29:46 T#44[0x00000fd0] ERROR - Monitor: Script - Set tool and inspection limits (line 39) : Error #1 in "Set tool and inspection limits" at line #39. ReferenceError: hole_diameter_px is not defined - Main : Set tool and inspection limits
11-17-2016 13:29:46 T#44[0x00000fd0] ERROR - Monitor: Executor - Script error detected in Set tool and inspection limits - Main : Set tool and inspection limits
11-17-2016 13:29:46 T#44[0x00000fd0] ERROR - Monitor: Executor - Halting on error
11-17-2016 13:29:47 T#57[0x00000c78] INFO  - Engine starting: 1001
11-17-2016 13:29:47 T#69[0x00000150] INFO  - Engine starting: 1001
11-17-2016 13:29:47 T#57[0x00000c78] ERROR - Monitor: Script - Set tool and inspection limits (line 39) : Error #1 in "Set tool and inspection limits" at line #39. ReferenceError: hole_diameter_px is not defined - Main : Set tool and inspection limits
11-17-2016 13:29:47 T#57[0x00000c78] ERROR - Monitor: Executor - Script error detected in Set tool and inspection limits - Main : Set tool and inspection limits
11-17-2016 13:29:47 T#57[0x00000c78] ERROR - Monitor: Executor - Halting on error
11-17-2016 13:29:47 T#69[0x00000150] ERROR - Monitor: Script - Set tool and inspection limits (line 39) : Error #1 in "Set tool and inspection limits" at line #39. ReferenceError: hole_diameter_px is not defined - Main : Set tool and inspection limits
11-17-2016 13:29:47 T#69[0x00000150] ERROR - Monitor: Executor - Script error detected in Set tool and inspection limits - Main : Set tool and inspection limits
11-17-2016 13:29:47 T#69[0x00000150] ERROR - Monitor: Executor - Halting on error
11-17-2016 13:29:47 T#54[0x00000c44] INFO  - Engine starting: 1001
11-17-2016 13:29:47 T#60[0x00000aec] INFO  - Engine starting: 1001
11-17-2016 13:29:47 T#66[0x00000288] INFO  - Engine starting: 1001
11-17-2016 13:29:47 T#54[0x00000c44] ERROR - Monitor: Script - Set tool and inspection limits (line 39) : Error #1 in "Set tool and inspection limits" at line #39. ReferenceError: hole_diameter_px is not defined - Main : Set tool and inspection limits
11-17-2016 13:29:47 T#54[0x00000c44] ERROR - Monitor: Executor - Script error detected in Set tool and inspection limits - Main : Set tool and inspection limits
11-17-2016 13:29:47 T#54[0x00000c44] ERROR - Monitor: Executor - Halting on error
11-17-2016 13:29:47 T#63[0x00000cd0] INFO  - Engine starting: 1001
11-17-2016 13:29:47 T#60[0x00000aec] ERROR - Monitor: Script - Set tool and inspection limits (line 39) : Error #1 in "Set tool and inspection limits" at line #39. ReferenceError: hole_diameter_px is not defined - Main : Set tool and inspection limits
11-17-2016 13:29:47 T#60[0x00000aec] ERROR - Monitor: Executor - Script error detected in Set tool and inspection limits - Main : Set tool and inspection limits
11-17-2016 13:29:47 T#60[0x00000aec] ERROR - Monitor: Executor - Halting on error
11-17-2016 13:29:47 T#66[0x00000288] ERROR - Monitor: Script - Set tool and inspection limits (line 39) : Error #1 in "Set tool and inspection limits" at line #39. ReferenceError: hole_diameter_px is not defined - Main : Set tool and inspection limits
11-17-2016 13:29:47 T#66[0x00000288] ERROR - Monitor: Executor - Script error detected in Set tool and inspection limits - Main : Set tool and inspection limits
11-17-2016 13:29:47 T#66[0x00000288] ERROR - Monitor: Executor - Halting on error
11-17-2016 13:29:47 T#63[0x00000cd0] ERROR - Monitor: Script - Set tool and inspection limits (line 39) : Error #1 in "Set tool and inspection limits" at line #39. ReferenceError: hole_diameter_px is not defined - Main : Set tool and inspection limits
11-17-2016 13:29:47 T#63[0x00000cd0] ERROR - Monitor: Executor - Script error detected in Set tool and inspection limits - Main : Set tool and inspection limits
11-17-2016 13:29:47 T#63[0x00000cd0] ERROR - Monitor: Executor - Halting on error
11-23-2016 10:57:25 T#2[0x00000c68] INFO  - Vision Engine version: 7020102 starting
11-23-2016 11:34:30 T#2[0x00000c68] INFO  - Vision Engine version: 7020102 starting
11-23-2016 11:34:31 T#2[0x00000c68] INFO  - Vision Engine version: 7020102 starting
11-23-2016 11:34:31 T#2[0x00000c68] INFO  - Vision Engine version: 7020102 starting
11-23-2016 11:34:32 T#2[0x00000c68] INFO  - Vision Engine version: 7020102 starting
11-23-2016 11:34:32 T#2[0x00000c68] INFO  - Vision Engine version: 7020102 starting
11-23-2016 11:34:32 T#2[0x00000c68] INFO  - Vision Engine version: 7020102 starting
11-23-2016 11:34:33 T#2[0x00000c68] INFO  - Vision Engine version: 7020102 starting
11-23-2016 11:34:33 T#2[0x00000c68] INFO  - Load starts
11-23-2016 11:34:34 T#2[0x00000c68] INFO  - [[None]] FTP image buffer is default: "C:\ProgramData\Teledyne DALSA\Sherlock\images"
11-23-2016 11:34:34 T#2[0x00000c68] INFO  - [[None]] FTP image buffer is default: "C:\ProgramData\Teledyne DALSA\Sherlock\images"
11-23-2016 11:34:34 T#2[0x00000c68] INFO  - [[None]] FTP image buffer is default: "C:\ProgramData\Teledyne DALSA\Sherlock\images"
11-23-2016 11:34:34 T#2[0x00000c68] INFO  - [[None]] FTP image buffer is default: "C:\ProgramData\Teledyne DALSA\Sherlock\images"
11-23-2016 11:34:34 T#2[0x00000c68] INFO  - [[None]] FTP image buffer is default: "C:\ProgramData\Teledyne DALSA\Sherlock\images"
11-23-2016 11:34:34 T#2[0x00000c68] INFO  - Load finished
11-23-2016 11:34:34 T#2[0x00000c68] INFO  - Load starts
11-23-2016 11:34:34 T#2[0x00000c68] INFO  - [[None]] FTP image buffer is default: "C:\ProgramData\Teledyne DALSA\Sherlock\images"
11-23-2016 11:34:34 T#2[0x00000c68] INFO  - [[None]] FTP image buffer is default: "C:\ProgramData\Teledyne DALSA\Sherlock\images"
11-23-2016 11:34:34 T#2[0x00000c68] INFO  - [[None]] FTP image buffer is default: "C:\ProgramData\Teledyne DALSA\Sherlock\images"
11-23-2016 11:34:34 T#2[0x00000c68] INFO  - [[None]] FTP image buffer is default: "C:\ProgramData\Teledyne DALSA\Sherlock\images"
11-23-2016 11:34:34 T#2[0x00000c68] INFO  - [[None]] FTP image buffer is default: "C:\ProgramData\Teledyne DALSA\Sherlock\images"
11-23-2016 11:34:34 T#2[0x00000c68] INFO  - Load finished
11-23-2016 11:34:34 T#2[0x00000c68] INFO  - Load starts
11-23-2016 11:34:34 T#2[0x00000c68] INFO  - [[None]] FTP image buffer is default: "C:\ProgramData\Teledyne DALSA\Sherlock\images"
11-23-2016 11:34:34 T#2[0x00000c68] INFO  - [[None]] FTP image buffer is default: "C:\ProgramData\Teledyne DALSA\Sherlock\images"
11-23-2016 11:34:34 T#2[0x00000c68] INFO  - [[None]] FTP image buffer is default: "C:\ProgramData\Teledyne DALSA\Sherlock\images"
11-23-2016 11:34:34 T#2[0x00000c68] INFO  - [[None]] FTP image buffer is default: "C:\ProgramData\Teledyne DALSA\Sherlock\images"
11-23-2016 11:34:34 T#2[0x00000c68] INFO  - [[None]] FTP image buffer is default: "C:\ProgramData\Teledyne DALSA\Sherlock\images"
11-23-2016 11:34:34 T#2[0x00000c68] INFO  - Load finished
11-23-2016 11:34:34 T#2[0x00000c68] INFO  - Load starts
11-23-2016 11:34:34 T#2[0x00000c68] INFO  - [[None]] FTP image buffer is default: "C:\ProgramData\Teledyne DALSA\Sherlock\images"
11-23-2016 11:34:34 T#2[0x00000c68] INFO  - [[None]] FTP image buffer is default: "C:\ProgramData\Teledyne DALSA\Sherlock\images"
11-23-2016 11:34:34 T#2[0x00000c68] INFO  - [[None]] FTP image buffer is default: "C:\ProgramData\Teledyne DALSA\Sherlock\images"
11-23-2016 11:34:34 T#2[0x00000c68] INFO  - [[None]] FTP image buffer is default: "C:\ProgramData\Teledyne DALSA\Sherlock\images"
11-23-2016 11:34:34 T#2[0x00000c68] INFO  - [[None]] FTP image buffer is default: "C:\ProgramData\Teledyne DALSA\Sherlock\images"
11-23-2016 11:34:34 T#2[0x00000c68] INFO  - Load finished
11-23-2016 11:34:34 T#2[0x00000c68] INFO  - Load starts
11-23-2016 11:34:34 T#2[0x00000c68] INFO  - [[None]] FTP image buffer is default: "C:\ProgramData\Teledyne DALSA\Sherlock\images"
11-23-2016 11:34:34 T#2[0x00000c68] INFO  - [[None]] FTP image buffer is default: "C:\ProgramData\Teledyne DALSA\Sherlock\images"
11-23-2016 11:34:34 T#2[0x00000c68] INFO  - [[None]] FTP image buffer is default: "C:\ProgramData\Teledyne DALSA\Sherlock\images"
11-23-2016 11:34:34 T#2[0x00000c68] INFO  - [[None]] FTP image buffer is default: "C:\ProgramData\Teledyne DALSA\Sherlock\images"
11-23-2016 11:34:34 T#2[0x00000c68] INFO  - [[None]] FTP image buffer is default: "C:\ProgramData\Teledyne DALSA\Sherlock\images"
11-23-2016 11:34:34 T#2[0x00000c68] INFO  - Load finished
11-23-2016 11:34:34 T#2[0x00000c68] INFO  - Load starts
11-23-2016 11:34:34 T#2[0x00000c68] INFO  - [[None]] FTP image buffer is default: "C:\ProgramData\Teledyne DALSA\Sherlock\images"
11-23-2016 11:34:34 T#2[0x00000c68] INFO  - [[None]] FTP image buffer is default: "C:\ProgramData\Teledyne DALSA\Sherlock\images"
11-23-2016 11:34:34 T#2[0x00000c68] INFO  - [[None]] FTP image buffer is default: "C:\ProgramData\Teledyne DALSA\Sherlock\images"
11-23-2016 11:34:34 T#2[0x00000c68] INFO  - [[None]] FTP image buffer is default: "C:\ProgramData\Teledyne DALSA\Sherlock\images"
11-23-2016 11:34:34 T#2[0x00000c68] INFO  - [[None]] FTP image buffer is default: "C:\ProgramData\Teledyne DALSA\Sherlock\images"
11-23-2016 11:34:34 T#2[0x00000c68] INFO  - Load finished
11-23-2016 11:34:34 T#2[0x00000c68] INFO  - Load starts
11-23-2016 11:34:34 T#2[0x00000c68] INFO  - [[None]] FTP image buffer is default: "C:\ProgramData\Teledyne DALSA\Sherlock\images"
11-23-2016 11:34:34 T#2[0x00000c68] INFO  - [[None]] FTP image buffer is default: "C:\ProgramData\Teledyne DALSA\Sherlock\images"
11-23-2016 11:34:34 T#2[0x00000c68] INFO  - [[None]] FTP image buffer is default: "C:\ProgramData\Teledyne DALSA\Sherlock\images"
11-23-2016 11:34:34 T#2[0x00000c68] INFO  - [[None]] FTP image buffer is default: "C:\ProgramData\Teledyne DALSA\Sherlock\images"
11-23-2016 11:34:34 T#2[0x00000c68] INFO  - [[None]] FTP image buffer is default: "C:\ProgramData\Teledyne DALSA\Sherlock\images"
11-23-2016 11:34:34 T#2[0x00000c68] INFO  - Load finished
11-23-2016 11:34:34 T#2[0x00000c68] INFO  - Load starts
11-23-2016 11:34:34 T#2[0x00000c68] INFO  - [[None]] FTP image buffer is default: "C:\ProgramData\Teledyne DALSA\Sherlock\images"
11-23-2016 11:34:34 T#2[0x00000c68] INFO  - [[None]] FTP image buffer is default: "C:\ProgramData\Teledyne DALSA\Sherlock\images"
11-23-2016 11:34:34 T#2[0x00000c68] INFO  - [[None]] FTP image buffer is default: "C:\ProgramData\Teledyne DALSA\Sherlock\images"
11-23-2016 11:34:34 T#2[0x00000c68] INFO  - [[None]] FTP image buffer is default: "C:\ProgramData\Teledyne DALSA\Sherlock\images"
11-23-2016 11:34:34 T#2[0x00000c68] INFO  - [[None]] FTP image buffer is default: "C:\ProgramData\Teledyne DALSA\Sherlock\images"
11-23-2016 11:34:34 T#2[0x00000c68] INFO  - Load finished
11-23-2016 11:34:36 T#44[0x0000021c] INFO  - Vision Engine version: 7020102 starting
11-23-2016 11:34:36 T#50[0x00000c48] INFO  - Vision Engine version: 7020102 starting
11-23-2016 11:34:36 T#40[0x00000a18] INFO  - Vision Engine version: 7020102 starting
11-23-2016 11:34:36 T#52[0x00000968] INFO  - Vision Engine version: 7020102 starting
11-23-2016 11:34:36 T#50[0x00000c48] ERROR - Monitor: Reset - Save image with graphics failed - Reset_Report_Images : save image with graphics_1_A_A
11-23-2016 11:34:36 T#50[0x00000c48] ERROR - Monitor: Executor - Error detected in Cam1 - Main : Cam1
11-23-2016 11:34:36 T#50[0x00000c48] ERROR - Monitor: Executor - Halting on error
11-23-2016 11:34:36 T#52[0x00000968] ERROR - Monitor: Reset - Save image with graphics failed - Reset_Report_Images : save image with graphics_1_A_A
11-23-2016 11:34:36 T#52[0x00000968] ERROR - Monitor: Executor - Error detected in Cam1 - Main : Cam1
11-23-2016 11:34:36 T#40[0x00000a18] ERROR - Monitor: Reset - Save image with graphics failed - Reset_Report_Images : save image with graphics_1_A_A
11-23-2016 11:34:36 T#40[0x00000a18] ERROR - Monitor: Executor - Error detected in Cam1 - Main : Cam1
11-23-2016 11:34:36 T#40[0x00000a18] ERROR - Monitor: Executor - Halting on error
11-23-2016 11:34:36 T#52[0x00000968] ERROR - Monitor: Executor - Halting on error
11-23-2016 11:34:36 T#44[0x0000021c] ERROR - Monitor: Reset - Save image with graphics failed - Reset_Report_Images : save image with graphics_1_A_A
11-23-2016 11:34:36 T#44[0x0000021c] ERROR - Monitor: Executor - Error detected in Cam1 - Main : Cam1
11-23-2016 11:34:36 T#44[0x0000021c] ERROR - Monitor: Executor - Halting on error
11-23-2016 11:34:36 T#38[0x00000e88] INFO  - Vision Engine version: 7020102 starting
11-23-2016 11:34:36 T#42[0x00000fd8] INFO  - Vision Engine version: 7020102 starting
11-23-2016 11:34:36 T#48[0x00000ef0] INFO  - Vision Engine version: 7020102 starting
11-23-2016 11:34:36 T#38[0x00000e88] ERROR - Monitor: Reset - Save image with graphics failed - Reset_Report_Images : save image with graphics_1_A_A
11-23-2016 11:34:36 T#38[0x00000e88] ERROR - Monitor: Executor - Error detected in Cam1 - Main : Cam1
11-23-2016 11:34:36 T#38[0x00000e88] ERROR - Monitor: Executor - Halting on error
11-23-2016 11:34:36 T#46[0x00000ba8] INFO  - Vision Engine version: 7020102 starting
11-23-2016 11:34:36 T#48[0x00000ef0] ERROR - Monitor: Reset - Save image with graphics failed - Reset_Report_Images : save image with graphics_1_A_A
11-23-2016 11:34:36 T#48[0x00000ef0] ERROR - Monitor: Executor - Error detected in Cam1 - Main : Cam1
11-23-2016 11:34:36 T#48[0x00000ef0] ERROR - Monitor: Executor - Halting on error
11-23-2016 11:34:36 T#46[0x00000ba8] ERROR - Monitor: Reset - Save image with graphics failed - Reset_Report_Images : save image with graphics_1_A_A
11-23-2016 11:34:36 T#46[0x00000ba8] ERROR - Monitor: Executor - Error detected in Cam1 - Main : Cam1
11-23-2016 11:34:36 T#46[0x00000ba8] ERROR - Monitor: Executor - Halting on error
11-23-2016 11:34:36 T#42[0x00000fd8] ERROR - Monitor: Executor - Error detected in Cam1 - Main : Cam1
11-23-2016 11:34:36 T#42[0x00000fd8] ERROR - Monitor: Executor - Halting on error
