exStartingStitch,Starting Stitch Number,160,0,1,0,INT
exStitchPerImage,Stitches Per Image,180,1,1,1,INT
exLeftSacrificeOffset,Left Inspection Indent,1200,1,5,1,INT
exRightSacrificeOffset,Right Inspection Indent,1200,1,5,1,INT
exFirstStitchOffset,First Stitch Location from edge of web,1200,1,1,1,INT
exStitchLocTol,Stitch Location Tolerance,100,0,1,1,INT
exStitchRep,Pitch Between Stitches,180,1,1,1,INT
exPitchTol,Pitch Tolerance,180,1,1,1,INT
exEdgeTol,Tool Location Tolerance from Edge of Web,100,0,1,1,INT
exExpStitchSlitTol,Slit Tolerance when calculating expected stitch,200,1,1,1,INT
exStitchFoundMinWidth,Minimum Stitch Width,200,1,1,1,INT
exStitchThreshold,Stitch Detection Threshold,200,1,1,1,INT
exResultArrayLength,Length of Result Array Sent to PLC,200,1,1,1,INT
exPassAll, Pass All,1,0,1,1,BOOL 
buildCam1LTol,Overlap Tolerance  Left Cam 1,500,-1500,1,5,INT
buildCam1RTol,Overlap Tolerance  Right Cam 1,500,-1500,1,5,INT
buildCam2LTol,Overlap Tolerance  Left Cam 2,500,-1500,1,5,INT
buildCam2RTol,Overlap Tolerance  Right Cam 2,500,-1500,1,5,INT
buildCam3LTol,Overlap Tolerance  Left Cam 3,500,-1500,1,5,INT
buildCam3RTol,Overlap Tolerance  Right Cam 3,500,-1500,1,5,INT
buildCam4LTol,Overlap Tolerance  Left Cam 4,500,-1500,1,5,INT
buildCam4RTol,Overlap Tolerance  Right Cam 4,500,-1500,1,5,INT
buildCam5LTol,Overlap Tolerance  Left Cam 5,500,-1500,1,5,INT
buildCam5RTol,Overlap Tolerance  Right Cam 5,500,-1500,1,5,INT
buildCam6LTol,Overlap Tolerance  Left Cam 6,500,-1500,1,5,INT
buildCam6RTol,Overlap Tolerance  Right Cam 6,500,-1500,1,5,INT
buildCam7LTol,Overlap Tolerance  Left Cam 7,500,-1500,1,5,INT
buildCam7RTol,Overlap Tolerance  Right Cam 7,500,-1500,1,5,INT
buildCam8LTol,Overlap Tolerance  Left Cam 8,500,-1500,1,5,INT
buildCam8RTol,Overlap Tolerance  Right Cam 8,500,-1500,1,5,INT
buildCam9LTol,Overlap Tolerance  Left Cam 9,500,-1500,1,5,INT
buildCam9RTol,Overlap Tolerance  Right Cam 9,500,-1500,1,5,INT
buildCam10LTol,Overlap Tolerance  Left Cam 10,500,-1500,1,5,INT
buildCam10RTol,Overlap Tolerance  Right Cam 10,500,-1500,1,5,INT
